Miami, Florida, Precipitation
Units: Inches
Base Period: 1999-2019
Missing: -99
Date,Value,Anomaly
200001,0.52,-1.04
200002,1.24,-0.65
200003,0.35,-1.88
200004,3.36,-0.04
200005,1.80,-4.60
200006,5.19,-5.62
200007,5.29,-2.53
200008,7.43,-2.35
200009,10.58,0.70
200010,18.65,11.56
200011,0.50,-2.04
200012,6.16,3.55
200101,0.60,-0.96
200102,0.05,-1.84
200103,4.77,2.54
200104,1.79,-1.61
200105,6.11,-0.29
200106,8.95,-1.86
200107,6.93,-0.89
200108,7.27,-2.51
200109,17.98,8.10
200110,13.16,6.07
200111,1.42,-1.12
200112,3.04,0.43
200201,0.22,-1.34
200202,3.58,1.69
200203,0.89,-1.34
200204,1.32,-2.08
200205,8.24,1.84
200206,15.42,4.61
200207,12.77,4.95
200208,6.56,-3.22
200209,6.48,-3.40
200210,0.72,-6.37
200211,3.74,1.20
200212,3.39,0.78
200301,0.43,-1.13
200302,0.83,-1.06
200303,3.89,1.66
200304,2.87,-0.53
200305,11.06,4.66
200306,11.94,1.13
200307,6.31,-1.51
200308,9.65,-0.13
200309,13.17,3.29
200310,4.09,-3.00
200311,6.64,4.10
200312,1.24,-1.37
200401,2.52,0.96
200402,3.08,1.19
200403,1.50,-0.73
200404,4.00,0.60
200405,2.45,-3.95
200406,6.79,-4.02
200407,6.74,-1.08
200408,10.09,0.31
200409,10.89,1.01
200410,5.54,-1.55
200411,0.34,-2.20
200412,0.52,-2.09
200501,1.92,0.36
200502,0.63,-1.26
200503,3.97,1.74
200504,3.27,-0.13
200505,7.48,1.08
200506,17.59,6.78
200507,5.00,-2.82
200508,9.27,-0.51
200509,9.92,0.04
200510,5.48,-1.61
200511,2.70,0.16
200512,1.00,-1.61
200601,0.32,-1.24
200602,3.47,1.58
200603,1.10,-1.13
200604,0.23,-3.17
200605,8.63,2.23
200606,7.06,-3.75
200607,7.32,-0.50
200608,12.95,3.17
200609,16.73,6.85
200610,1.65,-5.44
200611,1.64,-0.90
200612,3.12,0.51
200701,0.55,-1.01
200702,2.14,0.25
200703,2.70,0.47
200704,5.33,1.93
200705,5.28,-1.12
200706,15.23,4.42
200707,9.03,1.21
200708,4.44,-5.34
200709,8.22,-1.66
200710,9.64,2.55
200711,0.66,-1.88
200712,0.79,-1.82
200801,1.25,-0.31
200802,4.11,2.22
200803,5.24,3.01
200804,3.78,0.38
200805,1.71,-4.69
200806,9.63,-1.18
200807,8.94,1.12
200808,10.00,0.22
200809,7.88,-2.00
200810,6.51,-0.58
200811,0.97,-1.57
200812,0.28,-2.33
200901,0.34,-1.22
200902,0.12,-1.77
200903,1.79,-0.44
200904,1.17,-2.23
200905,7.54,1.14
200906,11.65,0.84
200907,6.17,-1.65
200908,7.92,-1.86
200909,6.84,-3.04
200910,2.63,-4.46
200911,2.97,0.43
200912,3.01,0.40
201001,0.89,-0.67
201002,4.69,2.80
201003,2.81,0.58
201004,8.95,5.55
201005,3.42,-2.98
201006,7.20,-3.61
201007,7.36,-0.46
201008,8.75,-1.03
201009,15.89,6.01
201010,1.58,-5.51
201011,2.35,-0.19
201012,1.21,-1.40
201101,2.55,0.99
201102,0.23,-1.66
201103,1.13,-1.10
201104,5.36,1.96
201105,2.16,-4.24
201106,12.22,1.41
201107,5.71,-2.11
201108,11.09,1.31
201109,4.99,-4.89
201110,15.53,8.44
201111,1.80,-0.74
201112,1.04,-1.57
201201,0.21,-1.35
201202,3.38,1.49
201203,4.98,2.75
201204,7.85,4.45
201205,14.67,8.27
201206,12.57,1.76
201207,8.93,1.11
201208,15.91,6.13
201209,11.04,1.16
201210,6.44,-0.65
201211,0.50,-2.04
201212,0.51,-2.10
201301,0.54,-1.02
201302,1.85,-0.04
201303,0.81,-1.42
201304,5.15,1.75
201305,11.03,4.63
201306,6.19,-4.62
201307,12.71,4.89
201308,4.43,-5.35
201309,10.48,0.60
201310,6.87,-0.22
201311,5.73,3.19
201312,4.67,2.06
201401,1.91,0.35
201402,1.17,-0.72
201403,2.61,0.38
201404,1.18,-2.22
201405,3.30,-3.10
201406,19.63,8.82
201407,10.30,2.48
201408,9.07,-0.71
201409,7.25,-2.63
201410,3.25,-3.84
201411,2.66,0.12
201412,1.32,-1.29
201501,0.96,-0.60
201502,2.81,0.92
201503,1.32,-0.91
201504,4.03,0.63
201505,2.40,-4.00
201506,3.60,-7.21
201507,5.91,-1.91
201508,9.02,-0.76
201509,9.96,0.08
201510,4.71,-2.38
201511,7.56,5.02
201512,9.83,7.22
201601,7.57,6.01
201602,2.85,0.96
201603,0.62,-1.61
201604,1.09,-2.31
201605,8.27,1.87
201606,8.73,-2.08
201607,4.12,-3.70
201608,13.77,3.99
201609,6.06,-3.82
201610,9.63,2.54
201611,0.94,-1.60
201612,2.33,-0.28
201701,3.41,1.85
201702,1.31,-0.58
201703,3.93,1.70
201704,2.16,-1.24
201705,2.69,-3.71
201706,15.97,5.16
201707,12.45,4.63
201708,8.57,-1.21
201709,14.97,5.09
201710,12.61,5.52
201711,4.41,1.87
201712,0.66,-1.95
201801,1.01,-0.55
201802,0.37,-1.52
201803,0.19,-2.04
201804,3.80,0.40
201805,16.59,10.19
201806,7.90,-2.91
201807,8.02,0.20
201808,9.59,-0.19
201809,7.89,-1.99
201810,1.76,-5.33
201811,2.77,0.23
201812,1.59,-1.02
201901,2.00,0.44
201902,1.53,-0.36
201903,1.91,-0.32
201904,3.16,-0.24
201905,4.62,-1.78
201906,12.44,1.63
201907,10.54,2.72
201908,15.75,5.97
201909,3.25,-6.63
201910,3.93,-3.16
201911,1.63,-0.91
201912,6.44,3.83
202001,2.03,0.47
202002,2.90,1.01
202003,0.10,-2.13
202004,3.86,0.46
202005,18.90,12.50
202006,7.11,-3.70
202007,10.27,2.45
202008,7.45,-2.33
202009,10.93,1.05
202010,11.86,4.77
202011,9.61,7.07
202012,1.61,-1.00
202101,0.50,-1.06
