New York (Central Park), New York, Average Temperature
Units: Degrees Fahrenheit
Base Period: 1999-2019
Missing: -99
Date,Value,Anomaly
200001,31.7,-1.7
200002,37.7,1.8
200003,47.6,4.6
200004,51.4,-2.7
200005,63.9,0.4
200006,71.7,-0.4
200007,72.7,-5.0
200008,72.8,-3.6
200009,66.4,-3.4
200010,57.4,-0.8
200011,45.7,-2.6
200012,31.5,-7.7
200101,34.0,0.6
200102,36.3,0.4
200103,40.0,-3.0
200104,54.3,0.2
200105,64.0,0.5
200106,73.3,1.2
200107,73.5,-4.2
200108,79.1,2.7
200109,68.1,-1.7
200110,58.9,0.7
200111,53.1,4.8
200112,44.5,5.3
200201,40.4,7.0
200202,41.0,5.1
200203,44.5,1.5
200204,56.5,2.4
200205,61.1,-2.4
200206,71.9,-0.2
200207,79.2,1.5
200208,78.1,1.7
200209,70.6,0.8
200210,55.6,-2.6
200211,46.4,-1.9
200212,36.4,-2.8
200301,27.9,-5.5
200302,30.5,-5.4
200303,43.5,0.5
200304,50.2,-3.9
200305,59.1,-4.4
200306,68.8,-3.3
200307,76.2,-1.5
200308,77.1,0.7
200309,68.3,-1.5
200310,55.5,-2.7
200311,50.4,2.1
200312,38.0,-1.2
200401,25.1,-8.3
200402,35.5,-0.4
200403,43.9,0.9
200404,54.0,-0.1
200405,65.6,2.1
200406,71.7,-0.4
200407,74.9,-2.8
200408,74.6,-1.8
200409,69.7,-0.1
200410,56.4,-1.8
200411,48.6,0.3
200412,38.8,-0.4
200501,31.7,-1.7
200502,36.9,1.0
200503,39.9,-3.1
200504,55.5,1.4
200505,59.3,-4.2
200506,74.4,2.3
200507,78.0,0.3
200508,80.1,3.7
200509,73.7,3.9
200510,58.3,0.1
200511,50.0,1.7
200512,35.7,-3.5
200601,41.3,7.9
200602,36.1,0.2
200603,43.5,0.5
200604,56.1,2.0
200605,63.5,0.0
200606,71.4,-0.7
200607,78.4,0.7
200608,76.2,-0.2
200609,67.0,-2.8
200610,56.7,-1.5
200611,52.3,4.0
200612,44.0,4.8
200701,37.9,4.5
200702,28.7,-7.2
200703,42.6,-0.4
200704,50.7,-3.4
200705,65.6,2.1
200706,71.8,-0.3
200707,75.4,-2.3
200708,74.4,-2.0
200709,70.7,0.9
200710,64.0,5.8
200711,45.8,-2.5
200712,37.4,-1.8
200801,36.9,3.5
200802,36.2,0.3
200803,43.1,0.1
200804,55.3,1.2
200805,60.5,-3.0
200806,74.4,2.3
200807,78.8,1.1
200808,74.2,-2.2
200809,69.2,-0.6
200810,55.5,-2.7
200811,46.3,-2.0
200812,38.5,-0.7
200901,28.3,-5.1
200902,37.1,1.2
200903,42.8,-0.2
200904,54.9,0.8
200905,62.9,-0.6
200906,67.9,-4.2
200907,73.1,-4.6
200908,76.1,-0.3
200909,66.7,-3.1
200910,55.4,-2.8
200911,51.5,3.2
200912,36.3,-2.9
201001,32.9,-0.5
201002,33.5,-2.4
201003,48.6,5.6
201004,58.3,4.2
201005,65.7,2.2
201006,75.1,3.0
201007,81.7,4.0
201008,77.8,1.4
201009,71.5,1.7
201010,58.6,0.4
201011,48.3,0.0
201012,33.2,-6.0
201101,30.1,-3.3
201102,36.4,0.5
201103,42.7,-0.3
201104,54.7,0.6
201105,64.9,1.4
201106,72.7,0.6
201107,80.7,3.0
201108,75.7,-0.7
201109,70.4,0.6
201110,57.5,-0.7
201111,52.3,4.0
201112,43.7,4.5
201201,37.7,4.3
201202,41.3,5.4
201203,51.4,8.4
201204,55.2,1.1
201205,65.5,2.0
201206,71.4,-0.7
201207,79.2,1.5
201208,77.1,0.7
201209,69.2,-0.6
201210,58.5,0.3
201211,44.3,-4.0
201212,41.9,2.7
201301,35.5,2.1
201302,34.3,-1.6
201303,40.6,-2.4
201304,53.4,-0.7
201305,63.2,-0.3
201306,73.1,1.0
201307,80.2,2.5
201308,74.6,-1.8
201309,67.9,-1.9
201310,60.2,2.0
201311,45.3,-3.0
201312,38.6,-0.6
201401,28.7,-4.7
201402,31.7,-4.2
201403,37.7,-5.3
201404,52.3,-1.8
201405,64.0,0.5
201406,72.5,0.4
201407,76.2,-1.5
201408,74.5,-1.9
201409,69.7,-0.1
201410,59.6,1.4
201411,45.3,-3.0
201412,40.6,1.4
201501,30.0,-3.4
201502,24.1,-11.8
201503,38.1,-4.9
201504,54.3,0.2
201505,68.5,5.0
201506,71.2,-0.9
201507,78.8,1.1
201508,79.0,2.6
201509,74.4,4.6
201510,58.1,-0.1
201511,52.8,4.5
201512,50.8,11.6
201601,34.5,1.1
201602,37.8,1.9
201603,48.9,5.9
201604,53.3,-0.8
201605,62.8,-0.7
201606,72.2,0.1
201607,78.7,1.0
201608,79.2,2.8
201609,71.8,2.0
201610,58.8,0.6
201611,49.8,1.5
201612,38.4,-0.8
201701,38.1,4.7
201702,41.7,5.8
201703,39.2,-3.8
201704,57.1,3.0
201705,61.1,-2.4
201706,72.0,-0.1
201707,76.8,-0.9
201708,74.0,-2.4
201709,70.5,0.7
201710,64.1,5.9
201711,46.7,-1.6
201712,35.1,-4.1
201801,31.8,-1.6
201802,42.1,6.2
201803,40.2,-2.8
201804,49.5,-4.6
201805,66.9,3.4
201806,71.7,-0.4
201807,77.6,-0.1
201808,78.1,1.7
201809,70.7,0.9
201810,57.7,-0.5
201811,44.4,-3.9
201812,40.2,1.0
201901,32.6,-0.8
201902,36.3,0.4
201903,41.8,-1.2
201904,55.5,1.4
201905,62.2,-1.3
201906,71.7,-0.4
201907,79.6,1.9
201908,75.5,-0.9
201909,70.4,0.6
201910,59.9,1.7
201911,43.9,-4.4
201912,38.4,-0.8
202001,39.2,5.8
202002,40.2,4.3
202003,48.0,5.0
202004,50.3,-3.8
202005,60.3,-3.2
202006,73.7,1.6
202007,80.0,2.3
202008,76.9,0.5
202009,68.8,-1.0
202010,57.9,-0.3
202011,53.0,4.7
202012,39.3,0.1
202101,34.8,1.4
