Pittsburgh, Pennsylvania, Precipitation
Units: Inches
Base Period: 1999-2019
Missing: -99
Date,Value,Anomaly
194801,2.06,-0.92
194802,1.91,-0.88
194803,3.67,0.69
194804,6.03,2.69
194805,3.17,-0.94
194806,6.06,1.85
194807,2.84,-1.69
194808,2.90,-0.56
194809,1.27,-2.20
194810,3.15,-0.02
194811,2.69,-0.05
194812,3.24,0.17
194901,3.96,0.98
194902,2.63,-0.16
194903,3.16,0.18
194904,2.56,-0.78
194905,2.26,-1.85
194906,3.04,-1.17
194907,5.04,0.51
194908,1.51,-1.95
194909,1.80,-1.67
194910,1.80,-1.37
194911,1.93,-0.81
194912,3.43,0.36
195001,5.68,2.70
195002,3.74,0.95
195003,3.89,0.91
195004,2.30,-1.04
195005,4.61,0.50
195006,5.87,1.66
195007,4.09,-0.44
195008,2.63,-0.83
195009,3.53,0.06
195010,1.53,-1.64
195011,7.29,4.55
195012,3.26,0.19
195101,4.90,1.92
195102,2.77,-0.02
195103,4.55,1.57
195104,4.86,1.52
195105,2.06,-2.05
195106,10.25,6.04
195107,3.48,-1.05
195108,0.55,-2.91
195109,2.72,-0.75
195110,1.45,-1.72
195111,3.75,1.01
195112,3.83,0.76
195201,4.71,1.73
195202,2.82,0.03
195203,4.64,1.66
195204,3.96,0.62
195205,5.36,1.25
195206,3.79,-0.42
195207,2.04,-2.49
195208,4.09,0.63
195209,1.45,-2.02
195210,0.98,-2.19
195211,1.73,-1.01
195212,2.19,-0.88
195301,3.07,0.09
195302,1.15,-1.64
195303,3.04,0.06
195304,3.92,0.58
195305,5.89,1.78
195306,3.69,-0.52
195307,2.19,-2.34
195308,3.00,-0.46
195309,1.67,-1.80
195310,0.89,-2.28
195311,1.33,-1.41
195312,1.43,-1.64
195401,2.34,-0.64
195402,1.55,-1.24
195403,4.28,1.30
195404,3.12,-0.22
195405,1.88,-2.23
195406,3.79,-0.42
195407,2.43,-2.10
195408,2.93,-0.53
195409,1.80,-1.67
195410,8.20,5.03
195411,1.01,-1.73
195412,2.70,-0.37
195501,1.35,-1.63
195502,3.24,0.45
195503,3.68,0.70
195504,2.61,-0.73
195505,2.59,-1.52
195506,3.21,-1.00
195507,3.61,-0.92
195508,6.77,3.31
195509,1.76,-1.71
195510,2.79,-0.38
195511,2.89,0.15
195512,0.41,-2.66
195601,1.91,-1.07
195602,5.99,3.20
195603,5.28,2.30
195604,4.25,0.91
195605,5.90,1.79
195606,4.19,-0.02
195607,4.25,-0.28
195608,5.07,1.61
195609,1.93,-1.54
195610,1.50,-1.67
195611,1.03,-1.71
195612,3.35,0.28
195701,1.65,-1.33
195702,1.36,-1.43
195703,2.02,-0.96
195704,4.58,1.24
195705,2.73,-1.38
195706,4.07,-0.14
195707,3.97,-0.56
195708,0.78,-2.68
195709,4.07,0.60
195710,1.74,-1.43
195711,2.50,-0.24
195712,4.22,1.15
195801,3.18,0.20
195802,1.11,-1.68
195803,1.88,-1.10
195804,3.42,0.08
195805,4.82,0.71
195806,2.74,-1.47
195807,7.43,2.90
195808,3.72,0.26
195809,4.52,1.05
195810,0.97,-2.20
195811,2.46,-0.28
195812,1.11,-1.96
195901,4.00,1.02
195902,2.15,-0.64
195903,2.11,-0.87
195904,3.33,-0.01
195905,2.56,-1.55
195906,3.70,-0.51
195907,4.25,-0.28
195908,4.04,0.58
195909,1.34,-2.13
195910,5.94,2.77
195911,2.43,-0.31
195912,2.78,-0.29
196001,3.01,0.03
196002,3.16,0.37
196003,2.07,-0.91
196004,1.37,-1.97
196005,5.62,1.51
196006,2.72,-1.49
196007,3.46,-1.07
196008,3.56,0.10
196009,1.84,-1.63
196010,1.65,-1.52
196011,1.22,-1.52
196012,1.65,-1.42
196101,1.95,-1.03
196102,3.13,0.34
196103,3.49,0.51
196104,5.22,1.88
196105,2.80,-1.31
196106,4.21,0.00
196107,5.53,1.00
196108,2.11,-1.35
196109,1.99,-1.48
196110,2.58,-0.59
196111,3.43,0.69
196112,1.72,-1.35
196201,2.34,-0.64
196202,3.56,0.77
196203,3.85,0.87
196204,3.02,-0.32
196205,1.88,-2.23
196206,1.81,-2.40
196207,2.44,-2.09
196208,2.57,-0.89
196209,4.69,1.22
196210,2.11,-1.06
196211,1.54,-1.20
196212,1.84,-1.23
196301,1.96,-1.02
196302,2.09,-0.70
196303,5.29,2.31
196304,2.39,-0.95
196305,1.57,-2.54
196306,2.40,-1.81
196307,3.46,-1.07
196308,2.31,-1.15
196309,1.40,-2.07
196310,0.16,-3.01
196311,2.54,-0.20
196312,1.25,-1.82
196401,2.56,-0.42
196402,1.74,-1.05
196403,4.96,1.98
196404,7.61,4.27
196405,1.78,-2.33
196406,3.85,-0.36
196407,4.48,-0.05
196408,1.79,-1.67
196409,0.74,-2.73
196410,1.42,-1.75
196411,2.74,0.00
196412,4.27,1.20
196501,3.84,0.86
196502,2.98,0.19
196503,3.17,0.19
196504,1.79,-1.55
196505,1.21,-2.90
196506,2.31,-1.90
196507,1.82,-2.71
196508,3.26,-0.20
196509,4.07,0.60
196510,2.82,-0.35
196511,2.34,-0.40
196512,0.63,-2.44
196601,4.52,1.54
196602,3.24,0.45
196603,1.88,-1.10
196604,3.73,0.39
196605,2.76,-1.35
196606,1.72,-2.49
196607,2.70,-1.83
196608,5.13,1.67
196609,1.92,-1.55
196610,1.38,-1.79
196611,3.40,0.66
196612,1.70,-1.37
196701,1.06,-1.92
196702,2.54,-0.25
196703,6.09,3.11
196704,4.41,1.07
196705,5.20,1.09
196706,0.90,-3.31
196707,4.54,0.01
196708,2.67,-0.79
196709,1.61,-1.86
196710,2.05,-1.12
196711,3.07,0.33
196712,2.22,-0.85
196801,2.83,-0.15
196802,0.79,-2.00
196803,4.53,1.55
196804,2.33,-1.01
196805,6.36,2.25
196806,2.39,-1.82
196807,2.36,-2.17
196808,3.97,0.51
196809,3.08,-0.39
196810,2.12,-1.05
196811,2.07,-0.67
196812,3.25,0.18
196901,2.03,-0.95
196902,0.52,-2.27
196903,1.15,-1.83
196904,2.91,-0.43
196905,1.89,-2.22
196906,3.74,-0.47
196907,4.53,0.00
196908,2.96,-0.50
196909,0.91,-2.56
196910,2.59,-0.58
196911,2.44,-0.30
196912,3.96,0.89
197001,1.61,-1.37
197002,1.92,-0.87
197003,3.36,0.38
197004,3.09,-0.25
197005,4.36,0.25
197006,4.62,0.41
197007,3.89,-0.64
197008,1.56,-1.90
197009,2.78,-0.69
197010,4.80,1.63
197011,2.65,-0.09
197012,3.30,0.23
197101,2.30,-0.68
197102,4.03,1.24
197103,3.21,0.23
197104,0.48,-2.86
197105,3.88,-0.23
197106,1.42,-2.79
197107,6.83,2.30
197108,1.24,-2.22
197109,3.87,0.40
197110,0.84,-2.33
197111,1.93,-0.81
197112,3.24,0.17
197201,1.84,-1.14
197202,3.64,0.85
197203,3.69,0.71
197204,4.38,1.04
197205,1.39,-2.72
197206,5.09,0.88
197207,2.99,-1.54
197208,1.80,-1.66
197209,5.42,1.95
197210,2.15,-1.02
197211,4.70,1.96
197212,3.05,-0.02
197301,2.04,-0.94
197302,1.81,-0.98
197303,3.86,0.88
197304,4.70,1.36
197305,5.87,1.76
197306,3.13,-1.08
197307,2.17,-2.36
197308,3.40,-0.06
197309,3.56,0.09
197310,4.44,1.27
197311,2.65,-0.09
197312,2.16,-0.91
197401,3.48,0.50
197402,2.11,-0.68
197403,3.72,0.74
197404,3.27,-0.07
197405,5.35,1.24
197406,5.07,0.86
197407,3.30,-1.23
197408,2.94,-0.52
197409,4.43,0.96
197410,1.12,-2.05
197411,3.07,0.33
197412,4.04,0.97
197501,3.35,0.37
197502,4.65,1.86
197503,4.63,1.65
197504,2.28,-1.06
197505,1.84,-2.27
197506,4.58,0.37
197507,4.37,-0.16
197508,7.56,4.10
197509,5.07,1.60
197510,3.46,0.29
197511,1.78,-0.96
197512,2.90,-0.17
197601,3.25,0.27
197602,1.75,-1.04
197603,4.45,1.47
197604,1.24,-2.10
197605,2.00,-2.11
197606,3.37,-0.84
197607,4.72,0.19
197608,1.25,-2.21
197609,3.30,-0.17
197610,3.77,0.60
197611,0.90,-1.84
197612,1.82,-1.25
197701,2.07,-0.91
197702,0.87,-1.92
197703,4.11,1.13
197704,3.26,-0.08
197705,2.57,-1.54
197706,2.85,-1.36
197707,3.38,-1.15
197708,2.66,-0.80
197709,3.14,-0.33
197710,2.44,-0.73
197711,2.59,-0.15
197712,3.28,0.21
197801,6.26,3.28
197802,0.54,-2.25
197803,1.65,-1.33
197804,2.25,-1.09
197805,4.26,0.15
197806,4.12,-0.09
197807,2.15,-2.38
197808,3.65,0.19
197809,2.64,-0.83
197810,3.43,0.26
197811,1.62,-1.12
197812,5.24,2.17
197901,4.80,1.82
197902,3.13,0.34
197903,1.32,-1.66
197904,3.17,-0.17
197905,4.49,0.38
197906,1.73,-2.48
197907,4.31,-0.22
197908,6.84,3.38
197909,3.59,0.12
197910,2.47,-0.70
197911,2.44,-0.30
197912,2.30,-0.77
198001,1.56,-1.42
198002,1.32,-1.47
198003,5.65,2.67
198004,2.94,-0.40
198005,4.31,0.20
198006,4.35,0.14
198007,6.76,2.23
198008,5.11,1.65
198009,1.30,-2.17
198010,2.41,-0.76
198011,2.38,-0.36
198012,1.38,-1.69
198101,0.79,-2.19
198102,4.20,1.41
198103,2.13,-0.85
198104,4.93,1.59
198105,2.04,-2.07
198106,8.20,3.99
198107,3.82,-0.71
198108,0.98,-2.48
198109,4.13,0.66
198110,1.82,-1.35
198111,1.50,-1.24
198112,3.01,-0.06
198201,4.45,1.47
198202,1.93,-0.86
198203,3.52,0.54
198204,1.44,-1.90
198205,3.98,-0.13
198206,3.05,-1.16
198207,2.36,-2.17
198208,1.96,-1.50
198209,2.80,-0.67
198210,0.40,-2.77
198211,3.34,0.60
198212,2.80,-0.27
198301,1.19,-1.79
198302,1.58,-1.21
198303,3.50,0.52
198304,4.33,0.99
198305,5.23,1.12
198306,4.82,0.61
198307,3.32,-1.21
198308,3.13,-0.33
198309,2.42,-1.05
198310,3.67,0.50
198311,3.94,1.20
198312,4.27,1.20
198401,1.41,-1.57
198402,2.06,-0.73
198403,2.33,-0.65
198404,3.73,0.39
198405,5.23,1.12
198406,1.98,-2.23
198407,3.01,-1.52
198408,5.16,1.70
198409,0.84,-2.63
198410,3.46,0.29
198411,3.14,0.40
198412,3.04,-0.03
198501,1.44,-1.54
198502,1.46,-1.33
198503,3.38,0.40
198504,1.65,-1.69
198505,5.80,1.69
198506,2.27,-1.94
198507,4.06,-0.47
198508,2.64,-0.82
198509,0.28,-3.19
198510,2.28,-0.89
198511,11.05,8.31
198512,2.26,-0.81
198601,2.50,-0.48
198602,3.43,0.64
198603,1.38,-1.60
198604,1.94,-1.40
198605,1.67,-2.44
198606,5.24,1.03
198607,5.67,1.14
198608,3.04,-0.42
198609,2.33,-1.14
198610,2.83,-0.34
198611,3.92,1.18
198612,3.47,0.40
198701,2.24,-0.74
198702,0.71,-2.08
198703,2.65,-0.33
198704,5.31,1.97
198705,2.41,-1.70
198706,6.30,2.09
198707,2.42,-2.11
198708,7.86,4.40
198709,3.97,0.50
198710,0.93,-2.24
198711,2.02,-0.72
198712,2.42,-0.65
198801,1.50,-1.48
198802,3.47,0.68
198803,2.56,-0.42
198804,1.98,-1.36
198805,2.78,-1.33
198806,1.26,-2.95
198807,2.82,-1.71
198808,2.04,-1.42
198809,2.34,-1.13
198810,1.41,-1.76
198811,2.81,0.07
198812,2.17,-0.90
198901,1.99,-0.99
198902,3.43,0.64
198903,5.52,2.54
198904,1.43,-1.91
198905,6.56,2.45
198906,10.29,6.08
198907,1.63,-2.90
198908,1.12,-2.34
198909,4.57,1.10
198910,2.04,-1.13
198911,1.56,-1.18
198912,2.39,-0.68
199001,3.31,0.33
199002,3.31,0.52
199003,1.47,-1.51
199004,3.48,0.14
199005,6.19,2.08
199006,4.24,0.03
199007,6.59,2.06
199008,3.59,0.13
199009,6.01,2.54
199010,3.52,0.35
199011,2.05,-0.69
199012,8.51,5.44
199101,2.55,-0.43
199102,1.89,-0.90
199103,2.92,-0.06
199104,2.56,-0.78
199105,3.30,-0.81
199106,3.82,-0.39
199107,3.74,-0.79
199108,1.63,-1.83
199109,3.45,-0.02
199110,0.56,-2.61
199111,1.98,-0.76
199112,3.67,0.60
199201,2.12,-0.86
199202,1.74,-1.05
199203,3.54,0.56
199204,2.30,-1.04
199205,2.31,-1.80
199206,0.65,-3.56
199207,8.72,4.19
199208,4.78,1.32
199209,2.91,-0.56
199210,1.47,-1.70
199211,3.31,0.57
199212,2.84,-0.23
199301,3.00,0.02
199302,2.93,0.14
199303,4.15,1.17
199304,3.66,0.32
199305,2.86,-1.25
199306,3.35,-0.86
199307,2.85,-1.68
199308,2.44,-1.02
199309,3.88,0.41
199310,2.78,-0.39
199311,4.31,1.57
199312,2.13,-0.94
199401,3.90,0.92
199402,2.13,-0.66
199403,5.00,2.02
199404,3.72,0.38
199405,2.54,-1.57
199406,2.92,-1.29
199407,3.27,-1.26
199408,7.75,4.29
199409,3.59,0.12
199410,0.88,-2.29
199411,3.65,0.91
199412,2.01,-1.06
199501,2.23,-0.75
199502,1.74,-1.05
199503,1.56,-1.42
199504,1.70,-1.64
199505,3.73,-0.38
199506,3.75,-0.46
199507,3.06,-1.47
199508,1.75,-1.71
199509,1.80,-1.67
199510,3.24,0.07
199511,2.75,0.01
199512,1.62,-1.45
199601,3.69,0.71
199602,2.55,-0.24
199603,4.54,1.56
199604,4.42,1.08
199605,2.95,-1.16
199606,7.96,3.75
199607,4.01,-0.52
199608,2.00,-1.46
199609,5.64,2.17
199610,2.96,-0.21
199611,2.83,0.09
199612,1.99,-1.08
199701,1.59,-1.39
199702,1.15,-1.64
199703,3.22,0.24
199704,1.57,-1.77
199705,6.33,2.22
199706,3.95,-0.26
199707,1.82,-2.71
199708,3.80,0.34
199709,2.91,-0.56
199710,0.95,-2.22
199711,5.98,3.24
199712,1.30,-1.77
199801,3.63,0.65
199802,2.57,-0.22
199803,1.91,-1.07
199804,5.00,1.66
199805,2.39,-1.72
199806,6.72,2.51
199807,2.02,-2.51
199808,3.32,-0.14
199809,1.09,-2.38
199810,2.27,-0.90
199811,1.50,-1.24
199812,1.81,-1.26
199901,4.88,1.90
199902,2.43,-0.36
199903,1.24,-1.74
199904,4.19,0.85
199905,4.12,0.01
199906,1.68,-2.53
199907,6.25,1.72
199908,2.22,-1.24
199909,1.97,-1.50
199910,1.55,-1.62
199911,3.46,0.72
199912,2.25,-0.82
200001,1.70,-1.28
200002,2.54,-0.25
200003,2.26,-0.72
200004,3.15,-0.19
200005,5.70,1.59
200006,5.65,1.44
200007,6.29,1.76
200008,3.67,0.21
200009,3.07,-0.40
200010,2.09,-1.08
200011,1.38,-1.36
200012,2.64,-0.43
200101,1.35,-1.63
200102,1.10,-1.69
200103,3.29,0.31
200104,3.75,0.41
200105,2.11,-2.00
200106,3.44,-0.77
200107,3.15,-1.38
200108,7.12,3.66
200109,2.24,-1.23
200110,2.33,-0.84
200111,3.47,0.73
200112,2.43,-0.64
200201,1.76,-1.22
200202,1.17,-1.62
200203,3.67,0.69
200204,3.05,-0.29
200205,4.70,0.59
200206,2.63,-1.58
200207,1.66,-2.87
200208,2.89,-0.57
200209,3.24,-0.23
200210,2.98,-0.19
200211,2.00,-0.74
200212,2.58,-0.49
200301,2.19,-0.79
200302,2.87,0.08
200303,1.55,-1.43
200304,2.46,-0.88
200305,6.15,2.04
200306,3.87,-0.34
200307,6.02,1.49
200308,3.17,-0.29
200309,3.49,0.02
200310,2.57,-0.60
200311,3.43,0.69
200312,3.35,0.28
200401,4.79,1.81
200402,2.45,-0.34
200403,3.59,0.61
200404,4.49,1.15
200405,6.08,1.97
200406,5.01,0.80
200407,5.67,1.14
200408,6.14,2.68
200409,10.06,6.59
200410,3.35,0.18
200411,3.19,0.45
200412,2.61,-0.46
200501,6.12,3.14
200502,3.04,0.25
200503,2.31,-0.67
200504,3.72,0.38
200505,4.09,-0.02
200506,3.35,-0.86
200507,4.34,-0.19
200508,3.72,0.26
200509,1.33,-2.14
200510,3.47,0.30
200511,4.05,1.31
200512,1.74,-1.33
200601,3.75,0.77
200602,1.75,-1.04
200603,2.12,-0.86
200604,3.00,-0.34
200605,2.96,-1.15
200606,4.38,0.17
200607,3.85,-0.68
200608,1.60,-1.86
200609,3.26,-0.21
200610,4.84,1.67
200611,1.41,-1.33
200612,2.02,-1.05
200701,3.30,0.32
200702,1.98,-0.81
200703,5.28,2.30
200704,4.31,0.97
200705,1.93,-2.18
200706,2.54,-1.67
200707,3.01,-1.52
200708,6.15,2.69
200709,2.30,-1.17
200710,1.70,-1.47
200711,3.97,1.23
200712,4.29,1.22
200801,1.63,-1.35
200802,5.46,2.67
200803,3.93,0.95
200804,2.02,-1.32
200805,3.21,-0.90
200806,6.17,1.96
200807,2.59,-1.94
200808,3.37,-0.09
200809,2.65,-0.82
200810,2.02,-1.15
200811,2.00,-0.74
200812,4.70,1.63
200901,2.98,0.00
200902,1.56,-1.23
200903,1.69,-1.29
200904,2.36,-0.98
200905,3.82,-0.29
200906,4.42,0.21
200907,4.13,-0.40
200908,3.55,0.09
200909,1.55,-1.92
200910,2.29,-0.88
200911,0.96,-1.78
200912,3.54,0.47
201001,2.90,-0.08
201002,3.22,0.43
201003,2.19,-0.79
201004,1.76,-1.58
201005,5.19,1.08
201006,5.13,0.92
201007,2.87,-1.66
201008,1.68,-1.78
201009,3.28,-0.19
201010,2.12,-1.05
201011,5.97,3.23
201012,1.57,-1.50
201101,1.69,-1.29
201102,4.97,2.18
201103,4.98,2.00
201104,5.13,1.79
201105,4.58,0.47
201106,2.51,-1.70
201107,2.63,-1.90
201108,2.69,-0.77
201109,3.74,0.27
201110,4.40,1.23
201111,3.75,1.01
201112,2.48,-0.59
201201,3.86,0.88
201202,2.24,-0.55
201203,3.29,0.31
201204,1.31,-2.03
201205,4.69,0.58
201206,1.24,-2.97
201207,7.33,2.80
201208,2.66,-0.80
201209,4.80,1.33
201210,4.44,1.27
201211,0.38,-2.36
201212,5.53,2.46
201301,2.45,-0.53
201302,2.13,-0.66
201303,2.19,-0.79
201304,3.27,-0.07
201305,2.34,-1.77
201306,5.48,1.27
201307,6.16,1.63
201308,1.78,-1.68
201309,2.31,-1.16
201310,2.35,-0.82
201311,2.98,0.24
201312,3.27,0.20
201401,2.19,-0.79
201402,2.26,-0.53
201403,1.87,-1.11
201404,4.47,1.13
201405,4.32,0.21
201406,4.06,-0.15
201407,5.20,0.67
201408,5.06,1.60
201409,0.97,-2.50
201410,1.89,-1.28
201411,1.98,-0.76
201412,2.63,-0.44
201501,2.26,-0.72
201502,1.56,-1.23
201503,4.02,1.04
201504,3.95,0.61
201505,2.73,-1.38
201506,7.34,3.13
201507,3.61,-0.92
201508,2.29,-1.17
201509,5.08,1.61
201510,3.35,0.18
201511,1.38,-1.36
201512,3.05,-0.02
201601,1.79,-1.19
201602,3.15,0.36
201603,2.83,-0.15
201604,2.25,-1.09
201605,3.62,-0.49
201606,3.11,-1.10
201607,3.12,-1.41
201608,3.29,-0.17
201609,3.08,-0.39
201610,3.94,0.77
201611,1.43,-1.31
201612,3.44,0.37
201701,3.56,0.58
201702,1.46,-1.33
201703,5.02,2.04
201704,3.54,0.20
201705,5.15,1.04
201706,3.79,-0.42
201707,6.42,1.89
201708,2.63,-0.83
201709,0.58,-2.89
201710,4.11,0.94
201711,4.15,1.41
201712,1.77,-1.30
201801,4.28,1.30
201802,7.05,4.26
201803,2.96,-0.02
201804,4.43,1.09
201805,2.84,-1.27
201806,6.10,1.89
201807,3.96,-0.57
201808,4.53,1.07
201809,8.50,5.03
201810,3.59,0.42
201811,4.57,1.83
201812,5.04,1.97
201901,3.07,0.09
201902,4.14,1.35
201903,2.37,-0.61
201904,3.44,0.10
201905,5.98,1.87
201906,6.43,2.22
201907,6.92,2.39
201908,2.45,-1.01
201909,5.34,1.87
201910,7.19,4.02
201911,1.65,-1.09
201912,3.53,0.46
202001,3.70,0.72
202002,3.31,0.52
202003,4.83,1.85
202004,4.58,1.24
202005,2.19,-1.92
202006,2.30,-1.91
202007,3.10,-1.43
202008,5.58,2.12
202009,0.92,-2.55
202010,3.29,0.12
202011,2.02,-0.72
202012,3.54,0.47
202101,2.27,-0.71
